Arrow keys/num pad: Move around XXX
>                 : Descend stair case XXX 
<                 : Ascend stair case XXX 
q                 : Save and quit XXX
s                 : Show character statistics XXX
o                 : Open XXX
w                 : Autowalk XXX
l                 : Look around XXX
F1                : Take screenshot XXX
Attack enemies by walking into them. XXX 
Dungeon entrances are shown on the map as O. Descend them for adventure and fun. You will probably die very quickly.
Sorry about that. XXX
